^D:\AAA - FACULTATE\FACULTATE ANUL II\WORKSPACE ACC\TEMA ACC # EXTRA - TURING MACHINE\TEMA ACC - TURING MACHINE\TEMA ACC - TURING MACHINE\TRANSITION.CPP
/c /IC:\BOOST\BOOST_1_68_0 /ZI /JMC /nologo /W3 /WX- /diagnostics:classic /sdl /Od /D _MBCS /Gm- /EHsc /RTC1 /MDd /GS /fp:precise /permissive- /Zc:wchar_t /Zc:forScope /Zc:inline /Fo"X64\DEBUG\\" /Fd"X64\DEBUG\VC142.PDB" /Gd /TP /FC D:\AAA - FACULTATE\FACULTATE ANUL II\WORKSPACE ACC\TEMA ACC # EXTRA - TURING MACHINE\TEMA ACC - TURING MACHINE\TEMA ACC - TURING MACHINE\TRANSITION.CPP
^D:\AAA - FACULTATE\FACULTATE ANUL II\WORKSPACE ACC\TEMA ACC # EXTRA - TURING MACHINE\TEMA ACC - TURING MACHINE\TEMA ACC - TURING MACHINE\TURINGMACHINE.CPP
/c /IC:\BOOST\BOOST_1_68_0 /ZI /JMC /nologo /W3 /WX- /diagnostics:classic /sdl /Od /D _MBCS /Gm- /EHsc /RTC1 /MDd /GS /fp:precise /permissive- /Zc:wchar_t /Zc:forScope /Zc:inline /Fo"X64\DEBUG\\" /Fd"X64\DEBUG\VC142.PDB" /Gd /TP /FC D:\AAA - FACULTATE\FACULTATE ANUL II\WORKSPACE ACC\TEMA ACC # EXTRA - TURING MACHINE\TEMA ACC - TURING MACHINE\TEMA ACC - TURING MACHINE\TURINGMACHINE.CPP
^D:\AAA - FACULTATE\FACULTATE ANUL II\WORKSPACE ACC\TEMA ACC # EXTRA - TURING MACHINE\TEMA ACC - TURING MACHINE\TEMA ACC - TURING MACHINE\SOURCE.CPP
/c /IC:\BOOST\BOOST_1_68_0 /ZI /JMC /nologo /W3 /WX- /diagnostics:classic /sdl /Od /D _MBCS /Gm- /EHsc /RTC1 /MDd /GS /fp:precise /permissive- /Zc:wchar_t /Zc:forScope /Zc:inline /Fo"X64\DEBUG\\" /Fd"X64\DEBUG\VC142.PDB" /Gd /TP /FC D:\AAA - FACULTATE\FACULTATE ANUL II\WORKSPACE ACC\TEMA ACC # EXTRA - TURING MACHINE\TEMA ACC - TURING MACHINE\TEMA ACC - TURING MACHINE\SOURCE.CPP
