^D:\AAA - FACULTATE\FACULTATE ANUL II\WORKSPACE ACC\TEMA ACC # EXTRA - TURING MACHINE\TEMA ACC - TURING MACHINE\TEMA ACC - TURING MACHINE\TRANSITION.CPP|D:\AAA - FACULTATE\FACULTATE ANUL II\WORKSPACE ACC\TEMA ACC # EXTRA - TURING MACHINE\TEMA ACC - TURING MACHINE\TEMA ACC - TURING MACHINE\TURINGMACHINE.CPP
D:\AAA - FACULTATE\FACULTATE ANUL II\WORKSPACE ACC\TEMA ACC # EXTRA - TURING MACHINE\TEMA ACC - TURING MACHINE\TEMA ACC - TURING MACHINE\X64\DEBUG\VC142.PDB
D:\AAA - FACULTATE\FACULTATE ANUL II\WORKSPACE ACC\TEMA ACC # EXTRA - TURING MACHINE\TEMA ACC - TURING MACHINE\TEMA ACC - TURING MACHINE\X64\DEBUG\VC142.IDB
D:\AAA - FACULTATE\FACULTATE ANUL II\WORKSPACE ACC\TEMA ACC # EXTRA - TURING MACHINE\TEMA ACC - TURING MACHINE\TEMA ACC - TURING MACHINE\X64\DEBUG\TURINGMACHINE.OBJ
D:\AAA - FACULTATE\FACULTATE ANUL II\WORKSPACE ACC\TEMA ACC # EXTRA - TURING MACHINE\TEMA ACC - TURING MACHINE\TEMA ACC - TURING MACHINE\X64\DEBUG\TRANSITION.OBJ
^D:\AAA - FACULTATE\FACULTATE ANUL II\WORKSPACE ACC\TEMA ACC # EXTRA - TURING MACHINE\TEMA ACC - TURING MACHINE\TEMA ACC - TURING MACHINE\SOURCE.CPP|D:\AAA - FACULTATE\FACULTATE ANUL II\WORKSPACE ACC\TEMA ACC # EXTRA - TURING MACHINE\TEMA ACC - TURING MACHINE\TEMA ACC - TURING MACHINE\TRANSITION.CPP|D:\AAA - FACULTATE\FACULTATE ANUL II\WORKSPACE ACC\TEMA ACC # EXTRA - TURING MACHINE\TEMA ACC - TURING MACHINE\TEMA ACC - TURING MACHINE\TURINGMACHINE.CPP
D:\AAA - FACULTATE\FACULTATE ANUL II\WORKSPACE ACC\TEMA ACC # EXTRA - TURING MACHINE\TEMA ACC - TURING MACHINE\TEMA ACC - TURING MACHINE\X64\DEBUG\VC142.PDB
D:\AAA - FACULTATE\FACULTATE ANUL II\WORKSPACE ACC\TEMA ACC # EXTRA - TURING MACHINE\TEMA ACC - TURING MACHINE\TEMA ACC - TURING MACHINE\X64\DEBUG\VC142.IDB
D:\AAA - FACULTATE\FACULTATE ANUL II\WORKSPACE ACC\TEMA ACC # EXTRA - TURING MACHINE\TEMA ACC - TURING MACHINE\TEMA ACC - TURING MACHINE\X64\DEBUG\TURINGMACHINE.OBJ
D:\AAA - FACULTATE\FACULTATE ANUL II\WORKSPACE ACC\TEMA ACC # EXTRA - TURING MACHINE\TEMA ACC - TURING MACHINE\TEMA ACC - TURING MACHINE\X64\DEBUG\TRANSITION.OBJ
D:\AAA - FACULTATE\FACULTATE ANUL II\WORKSPACE ACC\TEMA ACC # EXTRA - TURING MACHINE\TEMA ACC - TURING MACHINE\TEMA ACC - TURING MACHINE\X64\DEBUG\SOURCE.OBJ
^D:\AAA - FACULTATE\FACULTATE ANUL II\WORKSPACE ACC\TEMA ACC # EXTRA - TURING MACHINE\TEMA ACC - TURING MACHINE\TEMA ACC - TURING MACHINE\TRANSITION.CPP
D:\AAA - FACULTATE\FACULTATE ANUL II\WORKSPACE ACC\TEMA ACC # EXTRA - TURING MACHINE\TEMA ACC - TURING MACHINE\TEMA ACC - TURING MACHINE\X64\DEBUG\VC142.PDB
^D:\AAA - FACULTATE\FACULTATE ANUL II\WORKSPACE ACC\TEMA ACC # EXTRA - TURING MACHINE\TEMA ACC - TURING MACHINE\TEMA ACC - TURING MACHINE\SOURCE.CPP|D:\AAA - FACULTATE\FACULTATE ANUL II\WORKSPACE ACC\TEMA ACC # EXTRA - TURING MACHINE\TEMA ACC - TURING MACHINE\TEMA ACC - TURING MACHINE\TURINGMACHINE.CPP
D:\AAA - FACULTATE\FACULTATE ANUL II\WORKSPACE ACC\TEMA ACC # EXTRA - TURING MACHINE\TEMA ACC - TURING MACHINE\TEMA ACC - TURING MACHINE\X64\DEBUG\VC142.PDB
D:\AAA - FACULTATE\FACULTATE ANUL II\WORKSPACE ACC\TEMA ACC # EXTRA - TURING MACHINE\TEMA ACC - TURING MACHINE\TEMA ACC - TURING MACHINE\X64\DEBUG\VC142.IDB
D:\AAA - FACULTATE\FACULTATE ANUL II\WORKSPACE ACC\TEMA ACC # EXTRA - TURING MACHINE\TEMA ACC - TURING MACHINE\TEMA ACC - TURING MACHINE\X64\DEBUG\TURINGMACHINE.OBJ
D:\AAA - FACULTATE\FACULTATE ANUL II\WORKSPACE ACC\TEMA ACC # EXTRA - TURING MACHINE\TEMA ACC - TURING MACHINE\TEMA ACC - TURING MACHINE\X64\DEBUG\SOURCE.OBJ
^D:\AAA - FACULTATE\FACULTATE ANUL II\WORKSPACE ACC\TEMA ACC # EXTRA - TURING MACHINE\TEMA ACC - TURING MACHINE\TEMA ACC - TURING MACHINE\TURINGMACHINE.CPP
D:\AAA - FACULTATE\FACULTATE ANUL II\WORKSPACE ACC\TEMA ACC # EXTRA - TURING MACHINE\TEMA ACC - TURING MACHINE\TEMA ACC - TURING MACHINE\X64\DEBUG\VC142.PDB
D:\AAA - FACULTATE\FACULTATE ANUL II\WORKSPACE ACC\TEMA ACC # EXTRA - TURING MACHINE\TEMA ACC - TURING MACHINE\TEMA ACC - TURING MACHINE\X64\DEBUG\VC142.IDB
D:\AAA - FACULTATE\FACULTATE ANUL II\WORKSPACE ACC\TEMA ACC # EXTRA - TURING MACHINE\TEMA ACC - TURING MACHINE\TEMA ACC - TURING MACHINE\X64\DEBUG\TURINGMACHINE.OBJ
^D:\AAA - FACULTATE\FACULTATE ANUL II\WORKSPACE ACC\TEMA ACC # EXTRA - TURING MACHINE\TEMA ACC - TURING MACHINE\TEMA ACC - TURING MACHINE\SOURCE.CPP
D:\AAA - FACULTATE\FACULTATE ANUL II\WORKSPACE ACC\TEMA ACC # EXTRA - TURING MACHINE\TEMA ACC - TURING MACHINE\TEMA ACC - TURING MACHINE\X64\DEBUG\VC142.PDB
D:\AAA - FACULTATE\FACULTATE ANUL II\WORKSPACE ACC\TEMA ACC # EXTRA - TURING MACHINE\TEMA ACC - TURING MACHINE\TEMA ACC - TURING MACHINE\X64\DEBUG\VC142.IDB
D:\AAA - FACULTATE\FACULTATE ANUL II\WORKSPACE ACC\TEMA ACC # EXTRA - TURING MACHINE\TEMA ACC - TURING MACHINE\TEMA ACC - TURING MACHINE\X64\DEBUG\SOURCE.OBJ
